<svg style="width:24px;height:24px" viewBox="0 0 24 24" xmlns="http://www.w3.org/2000/svg">
  <path fill="currentColor" d="M15.584 0H4.765L0 21.36h6.327l1.56-7.067h4.52c4.327 0 7.942-2.586 8.928-7.013C22.431 2.267 18.733 0 15.584 0zm-4.738 10.187H8.792l1.369-5.84h3.095c1.068 0 1.862.613 2.136 1.52a2.168 2.168 0 0 0-.41-.054h-3.123l-1.013 4.374zm4.519-2.907c-.384 1.6-1.918 2.853-3.506 2.907l.74-3.2h2.82c0 .08-.027.186-.054.293zm7.696 1.467c.356-1.654.191-3.014-.302-4.08C23.773 5.867 24.32 7.6 23.8 9.92c-.958 4.427-4.601 7.013-8.928 7.013h-4.52L8.793 24H2.465l.274-1.173h5.313l1.561-7.094h4.52c4.326.027 7.942-2.586 8.928-6.986z"/>
</svg>
