<svg style="width:24px;height:24px" viewBox="0 0 24 24" xmlns="http://www.w3.org/2000/svg">
  <path fill="currentColor" d="M12 2a2 2 0 0 1 2 2 2 2 0 0 1-2 2 2 2 0 0 1-2-2 2 2 0 0 1 2-2m-1.5 5h3a2 2 0 0 1 2 2v5.5H14V22h-4v-7.5H8.5V9a2 2 0 0 1 2-2z"/>
</svg>
