<svg style="width:24px;height:24px" viewBox="0 0 24 24" xmlns="http://www.w3.org/2000/svg">
  <path fill="currentColor" d="M19 19H5V8h14m-3-7v2H8V1H6v2H5c-1.11 0-2 .89-2 2v14a2 2 0 0 0 2 2h14a2 2 0 0 0 2-2V5a2 2 0 0 0-2-2h-1V1"/>
  <path fill="currentColor" d="M11.301 11.214v1.13h-1.08v-1.3c0-.7.37-1.05 1.11-1.05h1.11c.753 0 1.13.35 1.13 1.05v1.9c0 .427-.16.673-.48.74.32.073.48.307.48.7v2.06c0 .707-.377 1.06-1.13 1.06h-1.11c-.74 0-1.11-.353-1.11-1.06v-1.28h1.08v1.12c0 .14.023.233.07.28.047.04.143.06.29.06h.47c.14 0 .233-.02.28-.06.053-.047.08-.14.08-.28v-1.8c0-.147-.027-.243-.08-.29-.047-.04-.14-.06-.28-.06h-.9v-.87h.9c.14 0 .233-.02.28-.06.053-.047.08-.14.08-.28v-1.71c0-.14-.027-.233-.08-.28-.047-.047-.14-.07-.28-.07h-.47c-.147 0-.243.023-.29.07-.047.047-.07.14-.07.28z"/>
</svg>
