<svg style="width:24px;height:24px" viewBox="0 0 24 24" xmlns="http://www.w3.org/2000/svg">
  <path fill="currentColor" d="M19 16c0 1.72-.63 3.3-1.66 4.5.41.39.66.91.66 1.5H6c0-.59.25-1.11.66-1.5A6.902 6.902 0 0 1 5 16H3c0-1.25.57-2.36 1.46-3.09l.01-.02A6.004 6.004 0 0 0 7 8V7a5 5 0 0 1 5-5 5 5 0 0 1 5 5v1c0 2 1 3.81 2.53 4.89l.01.02c.89.73 1.46 1.84 1.46 3.09h-2m-3 0a4 4 0 0 0-4-4 4 4 0 0 0-4 4 4 4 0 0 0 4 4 4 4 0 0 0 4-4m-6-7 2 1.5L14 9l-2-1.5L10 9m0-4a1 1 0 0 0-1 1 1 1 0 0 0 1 1 1 1 0 0 0 1-1 1 1 0 0 0-1-1m4 0a1 1 0 0 0-1 1 1 1 0 0 0 1 1 1 1 0 0 0 1-1 1 1 0 0 0-1-1z"/>
</svg>
